name,code,price,orderable,ship_weight,taxable,caption,options_title,options
"""Any Day"" Koozie",ADAG-0073B,3,Yes,1,Yes,"“Any Day Above Ground is A Good One""",,
"""Any Day"" Baseball Cap",ADAG-0074,16.59,Yes,1,Yes,"Features ""Any day above ground is a good one"" slogan",Color,"Black,Charcoal,Khaki,Orange"
White Museum T-Shirt,ADAG-0226,20,Yes,1,Yes,"Features hearse insignia on front and ""Any day above ground is a good one""  slogan on back ",Size,"S,M,L,XL,2XL,3XL

"
"""Any Day"" Tombstone Magnet",ADAG-0269,1.5,Yes,1,Yes,"NOTE: This item is currently on backorder. If you wish to purchase this item, we will fulfill your order as soon as inventory is received.

Features ""Any day above ground is a good one"" slogan",,
"""Every Day"" Barn Wood Sign #1",ADAG-0271A,10,Yes,1,Yes,"Features ""Every day above ground is a good one"" slogan; 3.5''x 12''",,
"""Any Day"" Barn Wood Sign #2",ADAG-0271B,10,Yes,1,Yes,"Features ""Any day above ground is a good one"" slogan; 3.5''x 12''",,
"""Toe Tag"" T-Shirt",ADAG-0446,20,Yes,1,Yes,"Features toe tag insignia with ""Any day above ground is a good one"" slogan",Size,"S,M,L,XL,2XL,3XL

"