name,code,price,orderable,ship_weight,taxable,caption,options_title,options
Vajrapani,ASIA-0708,26.99,Yes,1,Yes,Vajrapani figure; 6'' in height,,
Chinese Emperor,ASIA-0709A,14.99,Yes,1,Yes,Chinese Emperor figure; 5.5'' in height,,
Chinese Princess,ASIA-0709B,14.99,Yes,1,Yes,Chinese Princess figure; 5.5'' in height,,
Chinese God of Prosperity,ASIA-0710,16.5,Yes,1,Yes,Chinese God of Prosperity figure; 6.5'' in height,,