name,code,price,orderable,ship_weight,taxable,caption,options_title,options
"""Yellow"" Hand Painted Skull",DOTD-0252A,20.99,Yes,1,Yes,Hand-painted skull; 5''x 6'',,
"""Green"" Hand Painted Skull",DOTD-0252B,20.99,Yes,1,Yes,Hand-painted skull; 5''x 6'',,
La Catrina Tile,DOTD-0512,3.99,Yes,1,Yes,Tile painted with image of La Catrina; 4''x 4'',,
"""Bass"" Mariachi Band",DOTD-0568A,20,Yes,1,Yes,Mariachi band bass player; 5.25''x 3.5'',,
"""Guitar"" Mariachi Band",DOTD-0568B,20,Yes,1,Yes,Mariachi band guitar player; 4.75''x 3.5'',,
"""Violin"" Mariachi Band",DOTD-0568C,20,Yes,1,Yes,Mariachi band violin player; 5''x 3.5'',,
"""Trumpet"" Mariachi Band",DOTD-0568D,20,Yes,1,Yes,Mariachi band trumpet player; 5.25''x 3.5'',,
Matador,DOTD-0629,16.99,Yes,1,Yes,Matador figure; 5.25''x 3'',,
Purple Senorita,DOTD-0630,16.99,Yes,1,Yes,Senorita figure; 5.5''x 2.25'',,
Frida,DOTD-0631,16.99,Yes,1,Yes,Frida figure; 4''x 3.25'',,