<?xml version="1.0" encoding="utf-8"?>
<!-- Generator: Adobe Illustrator 18.1.1, SVG Export Plug-In . SVG Version: 6.00 Build 0)  -->
<svg version="1.1" id="Layer_1" xmlns="http://www.w3.org/2000/svg" xmlns:xlink="http://www.w3.org/1999/xlink" x="0px" y="0px"
	 viewBox="0 0 35 35" enable-background="new 0 0 35 35" xml:space="preserve">
<g>
	<path fill="#909B39" d="M17.4,34.9c9.6,0,17.4-7.8,17.4-17.4C34.9,7.8,27.1,0,17.4,0C7.8,0,0,7.8,0,17.4C0,27.1,7.8,34.9,17.4,34.9
		"/>
	<path fill="#FFFFFF" d="M14.6,25.2c-2.1,0-3.6-1.3-3.6-2.9c0-1.5,1.9-2.8,3.9-2.8c0.5,0,0.9,0.1,1.3,0.2c1.1,0.8,1.9,1.2,2.2,2.1
		c0,0.2,0.1,0.4,0.1,0.6C18.5,24,17.5,25.2,14.6,25.2 M15.1,16c-1.4,0-2.7-1.6-3-3.4c-0.2-1.8,0.7-3.2,2.1-3.2c1.4,0,2.7,1.5,3,3.3
		C17.4,14.6,16.5,16,15.1,16 M18,18.7c-0.5-0.3-1.4-1.2-1.4-1.7c0-0.6,0.2-0.9,1-1.5c0.9-0.7,1.5-1.7,1.5-2.8c0-1.4-0.6-2.7-1.7-3.1
		h1.7l1.2-0.9h-5.4c-2.4,0-4.7,1.8-4.7,4c0,2.2,1.7,3.9,4.1,3.9c0.2,0,0.3,0,0.5,0c-0.2,0.3-0.3,0.7-0.3,1c0,0.6,0.3,1.1,0.7,1.5
		c-0.3,0-0.6,0-0.9,0C11.3,19,9,21,9,22.9c0,2,2.5,3.2,5.5,3.2c3.4,0,5.3-1.9,5.3-3.9C19.9,20.6,19.4,19.7,18,18.7 M25.9,16.2h-2.1
		v-2.1h-1.7v2.1H20v1.7h2.1V20h1.7v-2.1h2.1V16.2z"/>
</g>
</svg>
