<?xml version="1.0" encoding="utf-8"?>
<!-- Generator: Adobe Illustrator 18.1.1, SVG Export Plug-In . SVG Version: 6.00 Build 0)  -->
<svg version="1.1" id="Layer_1" xmlns="http://www.w3.org/2000/svg" xmlns:xlink="http://www.w3.org/1999/xlink" x="0px" y="0px"
	 viewBox="0 0 35 35" enable-background="new 0 0 35 35" xml:space="preserve">
<g>
	<path fill="#929B38" d="M17.5,35.1c9.7,0,17.5-7.9,17.5-17.5C35.1,7.9,27.2,0,17.5,0C7.9,0,0,7.9,0,17.5C0,27.2,7.9,35.1,17.5,35.1
		"/>
	<path fill="#FFFFFF" d="M13.3,14.6h1.8v-1.8c0-0.8,0-2,0.6-2.7c0.6-0.8,1.4-1.3,2.8-1.3c2.3,0,3.3,0.3,3.3,0.3l-0.5,2.7
		c0,0-0.8-0.2-1.5-0.2c-0.7,0-1.3,0.3-1.3,1v2h2.9l-0.2,2.6h-2.7v9.1h-3.4v-9.1h-1.8V14.6z"/>
</g>
</svg>
