<?xml version="1.0" encoding="utf-8"?>
<!-- Generator: Adobe Illustrator 19.0.1, SVG Export Plug-In . SVG Version: 6.00 Build 0)  -->
<svg version="1.1" id="Layer_1" xmlns="http://www.w3.org/2000/svg" xmlns:xlink="http://www.w3.org/1999/xlink" x="0px" y="0px"
	 viewBox="-4 0 17.6 28" enable-background="new -4 0 17.6 28" xml:space="preserve">
<g>
	<polygon fill="#FFFFFF" points="13.6,0 -4,14.3 13.6,28 	"/>
</g>
</svg>
