<?xml version="1.0" encoding="utf-8"?>
<!-- Generator: Adobe Illustrator 18.1.1, SVG Export Plug-In . SVG Version: 6.00 Build 0)  -->
<svg version="1.1" id="Layer_1" xmlns="http://www.w3.org/2000/svg" xmlns:xlink="http://www.w3.org/1999/xlink" x="0px" y="0px"
	 viewBox="0 0 140 182" enable-background="new 0 0 140 182" xml:space="preserve">
<g>
	<path fill="#FFFFFF" d="M70.6,2.5c-19.5,0-35.3,15.8-35.3,35.3s15.8,35.3,35.3,35.3c19.5,0,35.3-15.8,35.3-35.3S90.1,2.5,70.6,2.5z
		 M67.2,43.2H55.5v4.1h10.4v3.8H55.5v7.4h-3.8V39.3h15.4V43.2z M67.2,34.5H64l-8.4-11.1v11.1h-3.8V17.1h3.5l8.2,10.7V17.1h3.8V34.5z
		 M89.5,58.5h-3.8v-7.7h-9.9v7.7h-3.8V39.3h3.8v7.6h9.9v-7.6h3.8V58.5z M89.5,34.5h-3.8V23.2l-4.9,7.4h-0.1l-4.9-7.4v11.3h-3.8V17.1
		h4.1l4.6,7.4l4.6-7.4h4.1V34.5z"/>
	<g>
		<g>
			<polygon fill="#FFFFFF" points="2.7,101.2 2.7,91.7 5.4,91.7 7.9,98.3 7.9,98.3 7.9,91.7 9.7,91.7 9.7,101.2 7.1,101.2 4.6,94.3 
				4.5,94.3 4.5,101.2 			"/>
			<path fill="#FFFFFF" d="M14.8,93.5L14.8,93.5l-0.9,4.1h1.9L14.8,93.5z M11,101.2l2.6-9.4h2.6l2.6,9.4h-2.1l-0.5-2.1h-2.7
				l-0.5,2.1H11z"/>
			<polygon fill="#FFFFFF" points="24.9,91.7 24.9,93.3 22.7,93.3 22.7,101.2 20.7,101.2 20.7,93.3 18.5,93.3 18.5,91.7 			"/>
			<rect x="26.1" y="91.7" fill="#FFFFFF" width="2" height="9.4"/>
			<g>
				<path fill="#FFFFFF" d="M34.5,96.4c0-2.4-0.1-3.5-1.3-3.5S32,94,32,96.4c0,2.4,0.1,3.5,1.3,3.5S34.5,98.9,34.5,96.4 M30,96.4
					c0-2.5,0-4.9,3.3-4.9s3.3,2.4,3.3,4.9c0,2.5,0,4.9-3.3,4.9S30,98.9,30,96.4"/>
			</g>
			<polygon fill="#FFFFFF" points="38.4,101.2 38.4,91.7 41.1,91.7 43.6,98.3 43.6,98.3 43.6,91.7 45.5,91.7 45.5,101.2 42.9,101.2 
				40.3,94.3 40.3,94.3 40.3,101.2 			"/>
			<path fill="#FFFFFF" d="M50.5,93.5L50.5,93.5l-0.9,4.1h1.9L50.5,93.5z M46.7,101.2l2.6-9.4h2.6l2.6,9.4h-2.1l-0.5-2.1h-2.7
				l-0.5,2.1H46.7z"/>
			<polygon fill="#FFFFFF" points="55.8,101.2 55.8,91.7 57.7,91.7 57.7,99.6 60.7,99.6 60.7,101.2 			"/>
			<polygon fill="#FFFFFF" points="66.5,101.2 66.5,91.7 69.6,91.7 71.1,98.1 71.1,98.1 72.7,91.7 75.8,91.7 75.8,101.2 73.9,101.2 
				73.9,93.9 73.8,93.9 72,101.2 70.1,101.2 68.4,93.9 68.4,93.9 68.4,101.2 			"/>
			<g>
				<path fill="#FFFFFF" d="M84.1,91.7v6.7c0,1.4-0.8,2.9-3.2,2.9c-2.2,0-3.2-1.1-3.2-2.9v-6.7h2v6.6c0,1.2,0.5,1.6,1.2,1.6
					c0.9,0,1.3-0.6,1.3-1.6v-6.6H84.1z"/>
				<path fill="#FFFFFF" d="M88.6,101.3c-2.4,0-2.9-1.4-2.8-3.1h2c0,0.9,0,1.7,1.1,1.7c0.7,0,1-0.4,1-1.1c0-1.7-4-1.8-4-4.6
					c0-1.5,0.7-2.7,3.1-2.7c1.9,0,2.9,0.9,2.7,2.8h-1.9c0-0.7-0.1-1.4-0.9-1.4c-0.6,0-1,0.4-1,1c0,1.8,4,1.6,4,4.6
					C91.9,101,90.1,101.3,88.6,101.3"/>
			</g>
			<polygon fill="#FFFFFF" points="93.6,101.2 93.6,91.7 98.8,91.7 98.8,93.2 95.6,93.2 95.6,95.5 98.5,95.5 98.5,96.9 95.6,96.9 
				95.6,99.7 98.9,99.7 98.9,101.2 			"/>
			<g>
				<path fill="#FFFFFF" d="M106.9,91.7v6.7c0,1.4-0.8,2.9-3.2,2.9c-2.2,0-3.2-1.1-3.2-2.9v-6.7h2v6.6c0,1.2,0.5,1.6,1.2,1.6
					c0.9,0,1.3-0.6,1.3-1.6v-6.6H106.9z"/>
			</g>
			<polygon fill="#FFFFFF" points="108.8,101.2 108.8,91.7 112,91.7 113.4,98.1 113.5,98.1 115,91.7 118.1,91.7 118.1,101.2 
				116.2,101.2 116.2,93.9 116.2,93.9 114.3,101.2 112.5,101.2 110.7,93.9 110.7,93.9 110.7,101.2 			"/>
			<g>
				<path fill="#FFFFFF" d="M129.1,96.4c0-2.4-0.1-3.5-1.3-3.5c-1.1,0-1.3,1-1.3,3.5c0,2.4,0.1,3.5,1.3,3.5
					C128.9,99.9,129.1,98.9,129.1,96.4 M124.6,96.4c0-2.5,0-4.9,3.3-4.9s3.3,2.4,3.3,4.9c0,2.5,0,4.9-3.3,4.9S124.6,98.9,124.6,96.4
					"/>
			</g>
			<polygon fill="#FFFFFF" points="132.9,101.2 132.9,91.7 137.8,91.7 137.8,93.2 134.9,93.2 134.9,95.6 137.7,95.6 137.7,97 
				134.9,97 134.9,101.2 			"/>
		</g>
		<g>
			<path fill="#FFFFFF" d="M7.7,145.7c0.5,0,1.9-0.1,2.2-0.1c0.9-0.1,1.3-0.7,1.4-1.4c0.1-0.2,0.1-0.4,0.3-0.4l0.5,0.1
				c0.1,0,0.1,0,0.1,0.2c0,0.3,0,2.1,0,2.4c0,0.7,0.1,1.7,0.1,2.1c0,0.1-0.1,0.2-0.2,0.2l-0.4,0.1c-0.1,0-0.2-0.1-0.3-0.2
				c-0.2-0.9-0.6-1.3-1.4-1.5c-0.9-0.2-1.8-0.2-2.3-0.2v4.7c0,0.6,0.4,0.7,0.9,0.7h0.9c0.1,0,0.2,0.1,0.2,0.2v0.8
				c0,0.1,0,0.3-0.2,0.3c-0.2,0-1.9-0.1-4-0.1c-1.4,0-3,0.1-3.1,0.1c-0.2,0-0.2-0.1-0.2-0.3v-0.7c0-0.1,0.1-0.2,0.2-0.2h0.9
				c0.6,0,0.8-0.3,0.8-0.5c0-0.4,0.1-2.7,0.1-6.2V144c0-0.9,0-3.2,0-3.5c-0.1-0.3-0.3-0.9-0.9-0.9H1.9c-0.1,0-0.2-0.1-0.2-0.2v-0.8
				c0-0.1,0.1-0.2,0.2-0.2c0.2,0,2.5,0.1,4.1,0.1c0.4,0,8,0,8.4-0.1c0.1,0.7,0.7,3.5,0.8,4c0,0.1,0,0.2,0,0.3l-0.6,0.3
				c-0.1,0-0.2,0-0.3-0.2c-0.2-0.4-0.7-1.2-1.5-2.2c-0.3-0.4-0.8-0.6-1.2-0.7c-0.6-0.1-3.5-0.2-3.9-0.2V145.7z"/>
			<path fill="#FFFFFF" d="M21.9,140.7c0-0.6-0.1-1.1-1.1-1.1h-0.6c-0.1,0-0.2-0.1-0.2-0.2v-0.9c0-0.1,0.1-0.2,0.2-0.2
				c0.2,0,2.3,0.1,3.9,0.1c1.3,0,3.2-0.1,3.4-0.1c0.2,0,0.2,0.1,0.2,0.2v0.8c0,0.1-0.1,0.2-0.2,0.2h-0.5c-1.1,0-1.5,0.3-1.5,0.6
				c-0.1,0.4,0,1.5,0,2.8v1.3c0,1.1,0.1,3.7,0.1,4.2c0,0.9,0.2,1.9,0.8,2.6c0.8,0.9,1.9,1.2,2.8,1.2c1,0,1.9-0.3,2.6-1
				c0.9-0.8,1.1-2,1.1-3.4l-0.1-4.5c0-1.6-0.1-2.6-0.1-3c-0.1-0.6-0.4-0.9-1.5-0.9h-0.4c-0.1,0-0.2-0.1-0.2-0.3v-0.8
				c0-0.1,0.1-0.2,0.2-0.2c0.2,0,2,0.1,3,0.1c0.9,0,2.2-0.1,2.4-0.1c0.2,0,0.2,0.1,0.2,0.3v0.7c0,0.1-0.1,0.2-0.2,0.2H36
				c-1.2,0-1.3,0.5-1.4,0.9c-0.1,0.3,0,2.8,0,3.1c0,0.3-0.1,4-0.1,4.8c-0.1,1.7-0.6,3.1-1.8,4.1c-0.9,0.8-2.2,1.3-4.5,1.3
				c-1.6,0-2.6-0.1-3.4-0.4c-1.5-0.6-2.2-1.5-2.6-2.8c-0.2-1-0.3-2.4-0.3-5.2V140.7z"/>
			<path fill="#FFFFFF" d="M43.3,141.4c0-1.2-0.8-1.7-1.7-1.7h-0.3c-0.1,0-0.2-0.1-0.2-0.2v-0.8c0-0.1,0.1-0.2,0.2-0.2
				c0.1,0,0.4,0,0.9,0c0.5,0,1.2,0.1,1.8,0.1c0.5,0,1.2-0.1,1.6-0.1c0.5,0,0.7,0.1,0.9,0.3c0.1,0.1,3.9,4.6,4.6,5.3
				c0.6,0.6,3.4,3.9,3.9,4.4h0.1v-1.1c0-1.4,0-2.9,0-4c0-0.8-0.2-2.7-0.3-3.1c-0.2-0.4-0.6-0.6-1.2-0.6H53c-0.2,0-0.2-0.1-0.2-0.2
				v-0.8c0-0.1,0.1-0.2,0.2-0.2c0.2,0,1.6,0.1,2.7,0.1c0.7,0,1.8-0.1,2.1-0.1c0.2,0,0.2,0.1,0.2,0.3v0.7c0,0.1-0.1,0.2-0.2,0.2h-0.3
				c-0.7,0-0.9,0.2-1,0.7c-0.2,1.5-0.2,3.6-0.2,4.9v7.7c0,0.5-0.1,0.8-0.5,0.8c-0.3,0-0.6-0.2-0.7-0.4c-2.2-2.2-4.4-4.6-6.5-7
				c-0.8-0.9-3.6-4.2-4.1-4.7h-0.1v3.8c0,2,0.1,5.3,0.2,5.6c0.1,0.8,0.5,1.1,1,1.1h0.7c0.2,0,0.2,0.1,0.2,0.2v0.8
				c0,0.1,0,0.2-0.2,0.2c-0.2,0-1.5-0.1-2.7-0.1c-0.5,0-1.9,0.1-2.2,0.1c-0.1,0-0.1-0.1-0.1-0.3v-0.9c0-0.1,0-0.1,0.1-0.1h0.8
				c0.3,0,0.8-0.2,0.9-1c0-0.4,0.1-2.7,0.1-6.4V141.4z"/>
			<path fill="#FFFFFF" d="M69.8,145c1,0,2-0.1,2.3-0.2c0.7-0.2,1-0.6,1.2-1.6c0-0.1,0.1-0.2,0.2-0.2l0.7,0c0.1,0,0.2,0.1,0.2,0.2
				c-0.1,0.3-0.1,2-0.1,2.3c0,0.7,0.1,1.7,0.1,2.2c0,0.1-0.1,0.2-0.2,0.2l-0.7,0.1c-0.1,0-0.2,0-0.2-0.2c-0.3-0.8-0.5-1.3-1.2-1.5
				c-1-0.2-1.5-0.2-2.4-0.2v1.1c0,1.2,0.1,3.1,0.1,3.5c0,1.5,1,1.6,2.3,1.6c1.5,0,2.4,0,3.3-0.8c0.3-0.2,1.4-1.7,1.9-2.3
				c0.1-0.2,0.2-0.2,0.3-0.1l0.6,0.3c0.1,0,0.1,0.1,0.1,0.2l-1.2,3.5c-0.1,0.2-0.2,0.3-0.4,0.3c-0.2,0-2-0.1-9.2-0.1
				c-1.3,0-3.1,0.1-3.5,0.1c-0.2,0-0.2-0.1-0.2-0.3v-0.8c0-0.1,0.1-0.2,0.2-0.2h0.3c1.5,0,1.6-0.1,1.6-1.3v-7.6
				c0-1.1,0.1-1.8-0.1-2.9c-0.1-0.7-0.3-0.8-1.6-0.8h-0.3c-0.1,0-0.1-0.1-0.1-0.2v-0.8c0-0.1,0-0.2,0.2-0.2c0.5,0,2.3,0.1,3.7,0.1
				l7.4,0c0.3,0,0.8-0.1,0.9-0.1c0.1,0,0.1,0.1,0.2,0.5c0.1,0.3,1,3.1,1.1,3.4c0,0.1,0,0.2,0,0.2l-0.5,0.2c-0.1,0.1-0.2,0-0.3-0.1
				c-0.1-0.1-1.8-2-2.4-2.5c-0.4-0.3-0.9-0.4-1.2-0.4l-3.2-0.1V145z"/>
			<path fill="#FFFFFF" d="M88.8,145.9c0.3,0.1,0.8,0.1,1.2,0.1c2.6,0,3.1-2.6,3.1-3.4c0-1-0.5-1.9-0.9-2.3
				c-0.4-0.5-1.4-0.7-2.3-0.7c-0.6,0-1.1,0.1-1.1,0.6V145.9z M85.5,140.6c0-0.7-0.3-1-1.3-1h-0.3c-0.1,0-0.1-0.1-0.1-0.2v-0.8
				c0-0.1,0.1-0.2,0.2-0.2c0.2,0,2.2,0.1,3.1,0.1c0.6,0,3.3-0.1,3.9-0.1c1.9,0,3.2,0.6,4.5,1.3c0.7,0.7,1.2,1.6,1.2,2.4
				c0,2.3-1.3,3.5-3.8,4.4v0.1c0.8,0.3,1.5,1.3,2.7,3.2c0.4,0.7,1.2,1.7,1.6,2.1c0.5,0.3,1.1,0.4,1.6,0.4c0.1,0,0.2,0.1,0.2,0.3v0.7
				c0,0.1-0.1,0.2-0.2,0.2c-0.1,0-0.4,0-0.8-0.1c-0.4,0-0.9,0-1.4,0c-0.9,0-1.9,0-2.4,0.1c-0.6-0.5-2.1-3.1-2.4-3.6
				c-1.1-2-1.7-2.7-2.2-2.7c-0.2,0-0.5,0-0.8,0.1v0.7v3.5c0.1,0.5,0.3,0.8,0.8,0.8h0.9c0.1,0,0.2,0.1,0.2,0.2v0.8
				c0,0.2-0.1,0.2-0.3,0.2c-0.2,0-2-0.1-3.3-0.1c-1.3,0-3,0.1-3.2,0.1c-0.1,0-0.2-0.1-0.2-0.3v-0.8c0-0.1,0.1-0.2,0.2-0.2h0.4
				c0.8,0,1.2-0.1,1.2-0.9c0-1.6,0-3.6,0-5.5V140.6z"/>
			<path fill="#FFFFFF" d="M112,146.6c-0.1-0.5-1.3-4.5-1.5-4.9c-0.1-0.3-0.2-0.5-0.3-0.5c-0.1,0-0.2,0.1-0.3,0.4
				c-0.1,0.3-1.8,4.7-2,5H112z M107.4,147.7c-0.2,0.4-1.2,3-1.3,3.4c-0.2,0.7,0,1.1,0.7,1.1h0.7c0.2,0,0.2,0.1,0.2,0.2v0.8
				c0,0.1,0,0.2-0.2,0.2c-0.3,0-2-0.1-2.5-0.1c-0.6,0-2.3,0.1-2.6,0.1c-0.1,0-0.1-0.2-0.1-0.3v-0.7c0-0.1,0.1-0.2,0.2-0.2h0.4
				c0.4,0,1-0.3,1.3-0.7c0.2-0.3,2-4.2,2.8-5.9c0.2-0.5,2.2-4.9,2.4-5.5c0.1-0.2,0.1-0.4,0-0.5c-0.1-0.1-0.3-0.2-0.3-0.4
				c0-0.2,0.2-0.3,0.5-0.4c1.1-0.2,1.9-0.6,2.3-0.9c0.1-0.1,0.3-0.2,0.5-0.2c0.2,0,0.3,0.1,0.4,0.4c0.5,1.3,2.1,6,2.5,7.3
				c0.5,1.6,1.9,5.5,2.1,5.8c0.4,0.6,1,0.9,1.5,0.9h0.6c0.1,0,0.2,0.1,0.2,0.2v0.7c0,0.2-0.1,0.3-0.2,0.3c-0.4,0-2.1-0.1-4-0.1
				c-0.6,0-2.6,0.1-3,0.1c-0.2,0-0.3-0.2-0.3-0.3v-0.7c0-0.1,0.1-0.2,0.2-0.2h0.6c0.5,0,0.6-0.3,0.5-0.6c-0.1-0.6-1-3.2-1.2-3.9
				H107.4z"/>
			<path fill="#FFFFFF" d="M126.3,144c0-1.4,0-3.3-0.1-3.6c-0.1-0.6-0.3-0.8-0.8-0.8h-1c-0.1,0-0.2-0.1-0.2-0.2v-0.8
				c0-0.1,0.1-0.2,0.2-0.2c0.2,0,1.9,0.1,3.9,0.1c1.3,0,3.2-0.1,3.5-0.1c0.1,0,0.2,0.1,0.2,0.2v0.8c0,0.1-0.1,0.2-0.2,0.2h-0.5
				c-1.3,0-1.4,0.2-1.4,0.7c0,0.3,0,3.2,0,4.6v1.8c0,0.4,0,4.6,0.1,5.3c1,0,3.9,0,4.7-0.1c0.5-0.2,2.2-2.3,2.7-3.1
				c0.1-0.2,0.2-0.2,0.3-0.2l0.6,0.3c0.1,0,0.1,0.2,0,0.3c0,0.2-0.9,3.5-1,4.1c-0.6,0-7.9-0.1-9.8-0.1c-0.5,0-1.2,0-1.8,0
				c-0.6,0-1.1,0.1-1.3,0.1c-0.1,0-0.2-0.1-0.2-0.3v-0.7c0-0.2,0.1-0.2,0.2-0.2h1c0.6,0,0.9-0.3,0.9-0.6c0-0.5,0.1-5.3,0.1-6.5V144z
				"/>
			<path fill="#FFFFFF" d="M14.2,169.9c0.3,0,0.5-0.1,0.5-0.3v-0.7c0-0.5-0.1-3.1-0.1-3.5c0-0.6-0.3-1-0.8-1h-0.8
				c-0.2,0-0.2-0.1-0.2-0.2v-0.8c0-0.2,0.1-0.2,0.2-0.2c0.4,0,2.5,0.1,3.5,0.1c1.1,0,3.1-0.1,3.4-0.1c0.3,0,0.3,0.1,0.3,0.4v0.6
				c0,0.1,0,0.2-0.3,0.2h-0.9c-0.5,0-0.7,0.4-0.7,0.8c0,0.5,0,4,0,4.7v0.8c0,0.7,0,4.8,0,5.1c0,1.3,0.2,1.7,1,1.7h1
				c0.1,0,0.2,0.1,0.2,0.2v0.8c0,0.2-0.1,0.2-0.3,0.2c-0.3,0-2-0.1-3.5-0.1c-1.1,0-3.2,0.1-3.7,0.1c-0.2,0-0.3-0.1-0.3-0.3v-0.8
				c0-0.1,0.1-0.2,0.2-0.2H14c0.5,0,0.6-0.4,0.6-1.2c0-0.5,0.1-3.7,0.1-4.2v-0.7c0-0.2-0.1-0.3-0.5-0.3H7.8c-0.3,0-0.3,0-0.3,0.2
				v0.3c0,0.6,0,3.9,0,4.5c0,1.1,0.3,1.3,0.7,1.3H9c0.1,0,0.2,0.1,0.2,0.2v0.8c0,0.1-0.1,0.2-0.2,0.2c-0.4,0-2.3-0.1-3.4-0.1
				c-1.1,0-3.3,0.1-3.8,0.1c-0.2,0-0.2-0.1-0.2-0.3v-0.8c0-0.2,0.1-0.2,0.3-0.2h0.9c0.9,0,1-0.5,1-1.2c0-0.4,0.1-4.7,0.1-5.2v-1
				c0-1.4-0.1-4-0.1-4.3c0-1-0.4-1.3-1-1.3h-1c-0.2,0-0.3-0.1-0.3-0.2v-0.8c0-0.2,0-0.3,0.3-0.3c0.4,0,2.6,0.1,3.7,0.1
				c1.3,0,3.2-0.1,3.6-0.1c0.2,0,0.3,0.1,0.3,0.4v0.6c0,0.2,0,0.2-0.3,0.2H8.4c-0.6,0-0.9,0.4-0.9,0.9c0,0.3,0,3.1,0,4.1v0.3
				c0,0.2,0.1,0.3,0.3,0.3H14.2z"/>
			<path fill="#FFFFFF" d="M29,169.6c0-0.5-0.1-3.2-0.1-4.1c0-0.7-0.3-1-1.1-1h-1.1c-0.2,0-0.2-0.1-0.2-0.2v-0.8
				c0-0.1,0.1-0.2,0.2-0.2c0.2,0,2.3,0.1,4.1,0.1c1.7,0,3.4-0.1,3.7-0.1c0.1,0,0.2,0.1,0.2,0.2v0.8c0,0.1,0,0.2-0.2,0.2h-0.7
				c-0.8,0-1.1,0.1-1.1,0.8c0,0.3,0,3.5,0,4.6v1.7c0,1,0,4.1,0,4.6c0.1,0.8,0.5,1.3,1.1,1.3h0.9c0.2,0,0.2,0.1,0.2,0.2v0.9
				c0,0.1,0,0.2-0.2,0.2c-0.3,0-2-0.1-4-0.1c-1.8,0-3.8,0.1-4,0.1c-0.1,0-0.2-0.1-0.2-0.3v-0.7c0-0.1,0.1-0.2,0.2-0.2h0.7
				c0.9,0,1.5,0,1.5-0.6c0-0.3,0.1-4.6,0.1-5.8V169.6z"/>
			<path fill="#FFFFFF" d="M43.3,173.5c0.1,0,0.2,0.1,0.2,0.3c0,0.4,0.1,1.1,0.6,2.2c0.5,0.9,1.6,1.6,3.2,1.6c1.1,0,2.6-0.9,2.6-2.3
				c0-1.6-1.1-2.3-3-2.9c-0.7-0.2-2.3-0.9-3.3-1.8c-1.1-1-1.5-1.9-1.5-4c0-1.2,0.8-2.2,1.6-3c0.9-0.7,2.2-1,3.6-1
				c1.4,0,2.1,0.2,2.5,0.4c0.3,0.2,0.5,0.2,0.6,0.1l0.1-0.2c0.1-0.1,0.2-0.1,0.5-0.1c0.3,0,0.4,0.1,0.4,0.3c0,1.1,0.3,3.3,0.3,3.8
				c0,0.1,0,0.2-0.1,0.2l-0.7,0.1c-0.1,0-0.2,0-0.2-0.1c-0.1-0.4-0.5-1.6-1.1-2.4c-0.5-0.5-1.2-0.9-2.6-0.9c-1.8,0-2.3,1.4-2.3,2
				c0,0.4,0,0.8,0.3,1.3c0.3,0.6,1.2,0.9,2.5,1.3c1.6,0.5,2.8,0.9,3.7,1.8c1,0.9,1.4,1.7,1.4,3.8c0,2.6-1.7,4.7-5.3,4.7
				c-1.7,0-2.9-0.6-3.7-1.2c-0.2-0.2-0.4-0.2-0.5,0.1l-0.1,0.3c-0.1,0.2-0.2,0.2-0.5,0.2c-0.3-0.1-0.4-0.2-0.3-0.4
				c0.1-1,0.3-3.7,0.4-4.2c0-0.1,0.1-0.2,0.2-0.2L43.3,173.5z"/>
			<path fill="#FFFFFF" d="M68.2,170.1c0,3.6,0,6.1,0,6.4c0.1,0.5,0.3,0.9,0.7,0.9h1.3c0.2,0,0.2,0.1,0.2,0.3v0.8
				c0,0.1-0.1,0.2-0.2,0.2c-0.2,0-2.4-0.1-4.1-0.1c-1.3,0-3.5,0.1-3.8,0.1c-0.2,0-0.3-0.1-0.3-0.3v-0.7c0-0.2,0.1-0.2,0.2-0.2h1.3
				c0.5,0,0.8-0.3,0.8-0.5c0.1-1.3,0.1-3.1,0.1-5.1v-7.2c-0.7,0-2.4,0-3.7,0.3c-0.9,0.5-1.6,1.6-2,2.5c-0.1,0.1-0.2,0.2-0.3,0.2
				l-0.8-0.3c-0.2-0.1-0.2-0.2-0.1-0.3c0.2-0.7,1.1-3.5,1.2-4.1c0.1-0.2,0.2-0.3,0.3-0.3c0.1,0,0.2,0,0.3,0.1l0.3,0.2
				c0.4,0.3,0.7,0.3,1.3,0.4c1.2,0.1,2.5,0.1,4.5,0.1h1.7c1.4,0,3.4-0.1,4.8-0.1c0.5,0,0.9-0.1,1.2-0.3l0.4-0.3
				c0.1-0.1,0.2-0.1,0.3-0.1c0.1,0,0.2,0.1,0.3,0.8c0.1,0.5,0.6,2.9,0.8,3.8c0,0.1,0,0.2-0.2,0.3l-0.7,0.2c-0.2,0.1-0.3,0-0.4-0.1
				c-0.4-0.9-1-2-1.7-2.5c-0.9-0.3-3.2-0.3-3.8-0.3V170.1z"/>
			<path fill="#FFFFFF" d="M93.1,171.2c0-4.5-2.5-7-4.3-7c-0.6,0-2,0.1-2.8,1.2c-1,1.4-1.7,3.4-1.7,5.1c0,5.4,3.1,7.1,4.6,7.1
				C92.7,177.6,93.1,173,93.1,171.2 M83.3,177.5c-1.2-0.8-3-3.2-3-6.4c0-1.4,0.2-3.4,1.9-5.3c2-2.5,4.2-2.9,6.7-2.9
				c1.7,0,3.9,0.2,5.5,1.8c1.4,1.3,2.7,3.4,2.7,6.4c0,1.6-0.3,3.3-1.3,4.7c-1.4,2.1-3.6,3.2-7.1,3.2C87.3,179,85.3,178.8,83.3,177.5
				"/>
			<path fill="#FFFFFF" d="M108.2,171c0.3,0.1,0.8,0.1,1.2,0.1c2.7,0,3.2-2.7,3.2-3.5c0-1-0.5-1.9-0.9-2.4c-0.4-0.5-1.4-0.7-2.4-0.7
				c-0.6,0-1.2,0.1-1.2,0.6V171z M104.8,165.5c0-0.7-0.3-1.1-1.3-1.1h-0.3c-0.1,0-0.1-0.1-0.1-0.2v-0.9c0-0.1,0.1-0.2,0.2-0.2
				c0.2,0,2.3,0.1,3.2,0.1c0.6,0,3.4-0.1,4.1-0.1c2,0,3.3,0.6,4.6,1.3c0.8,0.7,1.2,1.7,1.2,2.5c0,2.4-1.3,3.6-3.9,4.5v0.1
				c0.9,0.3,1.5,1.3,2.8,3.3c0.4,0.7,1.2,1.7,1.7,2.2c0.5,0.3,1.1,0.4,1.7,0.4c0.1,0,0.2,0.1,0.2,0.3v0.7c0,0.1-0.1,0.2-0.2,0.2
				c-0.1,0-0.4,0-0.8-0.1c-0.4,0-0.9,0-1.5,0c-0.9,0-2,0-2.5,0.1c-0.6-0.5-2.1-3.2-2.5-3.7c-1.2-2.1-1.7-2.8-2.3-2.8
				c-0.2,0-0.5,0-0.9,0.1v0.7v3.6c0.1,0.5,0.3,0.9,0.8,0.9h1c0.1,0,0.2,0.1,0.2,0.2v0.9c0,0.2-0.1,0.2-0.3,0.2
				c-0.2,0-2.1-0.1-3.4-0.1c-1.4,0-3.1,0.1-3.3,0.1c-0.1,0-0.2-0.1-0.2-0.3v-0.8c0-0.1,0.1-0.2,0.2-0.2h0.4c0.8,0,1.2-0.1,1.2-0.9
				c0-1.7,0-3.7,0-5.7V165.5z"/>
			<path fill="#FFFFFF" d="M128.9,172c-0.3-0.6-4.3-6.6-4.9-7.2c-0.3-0.3-0.6-0.4-1.2-0.4h-0.1c-0.2,0-0.2-0.1-0.2-0.3v-0.8
				c0-0.1,0.1-0.2,0.3-0.2s2,0.1,3.1,0.1c0.8,0,3.1-0.1,3.3-0.1c0.1,0,0.2,0.1,0.2,0.3v0.8c0,0.1,0,0.2-0.2,0.2h-0.5
				c-0.3,0-0.4,0.4-0.2,0.5c0.2,0.3,2.8,4.8,3.3,5.7c0.6-0.9,3-5,3.2-5.2c0.3-0.5,0.3-1-0.4-1h-0.5c-0.2,0-0.2-0.1-0.2-0.2v-0.8
				c0-0.1,0.1-0.2,0.2-0.2c0.2,0,1.9,0.1,2.9,0.1c0.6,0,1.8-0.1,2-0.1c0.2,0,0.2,0.1,0.2,0.3v0.7c0,0.2-0.1,0.2-0.2,0.2h-0.3
				c-0.4,0-0.6,0.1-1.2,0.2c-0.4,0.1-4.1,5.8-4.8,6.9v3c0,0.9,0,1.8,0.1,2.2c0.1,0.7,0.6,0.8,1.3,0.8h0.4c0.2,0,0.2,0.1,0.2,0.2v0.9
				c0,0.1-0.1,0.2-0.3,0.2c-0.2,0-2.1-0.1-3.6-0.1c-1.4,0-3.4,0.1-3.6,0.1c-0.2,0-0.2-0.1-0.2-0.3v-0.7c0-0.1,0.1-0.2,0.2-0.2h0.5
				c1.1,0,1.3-0.2,1.4-0.7c0-0.3,0-1.5,0-3.5V172z"/>
		</g>
		<g>
			<path fill="#60252F" d="M22,115c0.8-1.4,2.6-1.9,4-1.1c1.4,0.8,1.9,2.6,1.1,4c-0.8,1.4-2.6,1.9-4,1.1
				C21.7,118.2,21.2,116.4,22,115"/>
			<path fill="#60252F" d="M67.3,117.2c0.9-1.6,3-2.2,4.7-1.3c1.6,0.9,2.2,3,1.3,4.7c-0.9,1.6-3,2.2-4.7,1.3
				C66.9,120.9,66.4,118.9,67.3,117.2"/>
			<path fill="#60252F" d="M113.4,120.2c0.8-1.4,2.6-1.9,4-1.1c1.4,0.8,1.9,2.6,1.1,4c-0.8,1.4-2.6,1.9-4,1.1
				C113.1,123.4,112.6,121.6,113.4,120.2"/>
			<path fill="#60252F" d="M24.2,118.1c0,0,8.5,6.3,21.8,5.2c13.9-1.1,22.9-2,26.7-2.9c4.5-1.1,16.2-3.5,23.1-3.7
				c7-0.2,12,0.2,20.2,4.9l0.2-2.2c0,0-6-5-19.9-5.2c-13.9-0.2-22.9,2-26.7,2.9c-4.5,1.1-16.2,3.5-23.1,3.7
				c-7,0.2-13.2,0.5-21.5-4.1L24.2,118.1z"/>
		</g>
	</g>
</g>
</svg>
