<?xml version="1.0" encoding="utf-8"?>
<!-- Generator: Adobe Illustrator 18.1.1, SVG Export Plug-In . SVG Version: 6.00 Build 0)  -->
<svg version="1.1" id="Layer_1" xmlns="http://www.w3.org/2000/svg" xmlns:xlink="http://www.w3.org/1999/xlink" x="0px" y="0px"
	 viewBox="0 0 12 106" enable-background="new 0 0 12 106" xml:space="preserve">
<g>
	<circle fill="#FFFFFF" cx="3.2" cy="102.7" r="3.2"/>
	<circle fill="#FFFFFF" cx="5.8" cy="52.9" r="3.7"/>
	<circle fill="#FFFFFF" cx="8.8" cy="3.2" r="3.2"/>
	<path fill="#FFFFFF" d="M5,103.1c0,0,6.8-9.2,5.7-23.8c-1.2-15.1-2.2-24.9-3.2-29c-1.2-4.9-3.8-17.6-4-25.1c-0.2-7.6,0.2-13,5.3-22
		L6.4,3c0,0-5.4,6.6-5.7,21.7s2.2,24.9,3.2,29c1.2,4.9,3.8,17.6,4,25.1c0.2,7.6,0.6,14.4-4.5,23.4L5,103.1z"/>
</g>
</svg>
